{
  "type": "service_account",
  "project_id": "share-van-manager",
  "private_key_id": "fe0fd91e980961687a5497d6bc79ef7794d27fed",
  "private_key": "-----BEGIN PRIVATE KEY-----\nMIIEvwIBADANBgkqhkiG9w0BAQEFAASCBKkwggSlAgEAAoIBAQD23WyUwRSARL8L\nHu6/IMWc6XE0UwPXaXZ7CqTMGgSBGfnVDHvKAtVJ2gaHW+w5bbSDaRKcgKyPTHys\naGnnpWe5SluPMN9p/9ya74d5eXPQaenXWoEa+8ZInGp2zVCXdfyWSfdYzslpHFaG\nX9AGW/pA6C6WdxQWtTZajNWxyAIPNfdnRbjtHdHUqie1PYW6ODICZL3wb+tyB+yS\noLo5+2Rm/CKlPhxJkdQbuSzl7kmmNRYwdJbGtPJzt373ppRnxugiK6H/18cYxDhC\nKi0uT1O0SvL23GWxSEG9jHk6jf2/oL5YrBeSJ+g3cRdceguyfy/mCnQtFKj2U875\nFJJ2UzkTAgMBAAECggEAIP+aJbblfvvcLv1fMTc36HCf9uboiuEzEDbCWUdaYMjQ\nch/CuvnD+aTmMy52FiXJomM8309SlwPEtTsZJPjMM6LH4w0dCstDzttugtiu7XtV\njGQxq8y0mud6/Q8W0xgsv7N6wmk/LQi3sYCZ4FpnykipqZKYodcZQTi1e+0zW/A5\n6pHGX8UPYeMviAw2042mE8jSyxusVB3JIFZ67coRYGJEN+CUVFy9gXLCeE8Wesri\nIH74bI9KdM54Vmn9vK352yMsBiU3lFbk/4ZUWRsZ9OF3BIt1+W14L5y+n3wsQbGK\n9SOcCeHUY565zcSiU1+vsB4lS51tTw5dV9FpOqpLKQKBgQD+TD6Ypg1EVrzwpE0K\nG2b+yq+u6ZDXymc+fhr4oZ4li13E/AccanibMPCVkk/MeFEvXATsMzR4CwnRN1e+\nydxyIwo8WdEyLU3VeFfA9c2W/83vGJQrjFMaBcAP9juG1eeUBhh0lR1Knj6uCYcf\nMtqGeRIrmmJK5nH0IH9Z97rzpwKBgQD4hHFhl/+oVtvdNaGG6rbGLODYtrW2yBwy\nbQUmPWJxO/dhQE1AWRnZf+2ZXsaMta/byEbYOdXvNXuHSbGDzZiaODiOYCg3G81k\nK0eUeg87Ndg4z0blncVARbchV+DGysXMuNbfbQvB0kPuv/c8fY7tmRnUKDU1iR30\nQ65owiHstQKBgQDhi6BtZcIYndIAoclOsJU+YWlG+xQjwPqne9PSOA57gEvP3jU0\nZ97GzrZkAxxR31kqZzRahuP/oNK5RJvHtWSXuypl8sfP+EyzjIRQufL5/bKaYTNy\nGIjQaM87mQqdAfXe3TUtmeAcAZTYacz1x/X4FUQfdlO92PyzKWuq0UV4uwKBgQDE\nnbQ+bE0+WAn3B5lV7pjQTW1Ox68Yf1Wfp5UtXd9mivT7Ii58PIIxC/9lGhCn/o61\nqcwzAf76FCw5Ktqg1qZnTRehvP3UK9Dh8UPeentWcxEwUP1caOhII1/xp18UqBS6\nFXsapWFp5PsOBx6J4ySTYk+HBJCkXGkweeOgygahCQKBgQCz7kWEYGFzMbWWExzB\nfDOYfKKB5ABlLkUhUS3mn9jhGtJm8YtfPPHEOlzO0bPtI3sbsSBT7gxUCefGZ+q3\nL98j/G8Q52R20YCjc240/bECHznbLuk9uKuuzKyd5P4jIFkJ+9lnSKBrb79lZlwd\nJ6Ra5zAr4Jc6tOuFQXl4v+NY4A==\n-----END PRIVATE KEY-----\n",
  "client_email": "firebase-adminsdk-zs64c@share-van-manager.iam.gserviceaccount.com",
  "client_id": "108099233671945509072",
  "auth_uri": "https://accounts.google.com/o/oauth2/auth",
  "token_uri": "https://oauth2.googleapis.com/token",
  "auth_provider_x509_cert_url": "https://www.googleapis.com/oauth2/v1/certs",
  "client_x509_cert_url": "https://www.googleapis.com/robot/v1/metadata/x509/firebase-adminsdk-zs64c%40share-van-manager.iam.gserviceaccount.com"
}
